{
  "questions": [
    "What projects have you worked on?",
    "Can I see some of your work?",
    "Show me your projects",
    "can I see a list of your projects?",
    "show me your portfolio",
    "lets see your work",
    "I want to see the projects you work on",
    "show me the kinds of projects you work on",
    "What kind of work do you do?",
    "What do you do for a living?",
    "What kind of coder are you?",
    "What languages do you use?",
    "what's your job?",
    "What kinds of projects do you work on?"
  ]
}
