{
  "questions": [
    "how are you",
    "how's it going?",
    "What good?",
    "how have you been?",
    "How do you feel?"
  ],
  "answers": [
    "I'm great thanks!",
    "I'm doing well thank you!",
    "Just fine, thanks for asking"
  ]
}
